%YAML 1.1
%TAG !u! tag:unity3d.com,2011:
--- !u!1045 &1
EditorBuildSettings:
  m_ObjectHideFlags: 0
  serializedVersion: 2
  m_Scenes:
  - enabled: 1
    path: Assets/Scenes/CharacterCreating.unity
    guid: 66d63352e78e27044be044b520a021fe
  - enabled: 1
    path: Assets/Scenes/SampleScene.unity
    guid: b0312950df09d864ab213cc5956863ed
  - enabled: 1
    path: Assets/Scenes/Scene2.unity
    guid: ba011c2e6756bcb408e87edceb5bce5e
  - enabled: 1
    path: Assets/Scenes/Scene3.unity
    guid: 62cc15a1b2df3a64696c17f9676f5e90
  - enabled: 1
    path: Assets/Scenes/shoppingscene.unity
    guid: d9b70a09162f8de4f87573a20cba2297
  m_configObjects: {}
