%YAML 1.1
%TAG !u! tag:unity3d.com,2011:
--- !u!1001 &4814942188930508069
PrefabInstance:
  m_ObjectHideFlags: 0
  serializedVersion: 2
  m_Modification:
    m_TransformParent: {fileID: 0}
    m_Modifications:
    - target: {fileID: 1561859090364557415, guid: 749fa629e59c82943b9e5ff3aefd3a2c,
        type: 3}
      propertyPath: m_Name
      value: child2
      objectReference: {fileID: 0}
    - target: {fileID: 8805360433426507016, guid: 749fa629e59c82943b9e5ff3aefd3a2c,
        type: 3}
      propertyPath: m_LocalPosition.x
      value: 1.648
      objectReference: {fileID: 0}
    - target: {fileID: 8805360433426507016, guid: 749fa629e59c82943b9e5ff3aefd3a2c,
        type: 3}
      propertyPath: m_LocalPosition.y
      value: 0.9373
      objectReference: {fileID: 0}
    - target: {fileID: 8805360433426507016, guid: 749fa629e59c82943b9e5ff3aefd3a2c,
        type: 3}
      propertyPath: m_LocalPosition.z
      value: -3.2617
      objectReference: {fileID: 0}
    - target: {fileID: 8805360433426507016, guid: 749fa629e59c82943b9e5ff3aefd3a2c,
        type: 3}
      propertyPath: m_LocalRotation.x
      value: -0.01214217
      objectReference: {fileID: 0}
    - target: {fileID: 8805360433426507016, guid: 749fa629e59c82943b9e5ff3aefd3a2c,
        type: 3}
      propertyPath: m_LocalRotation.y
      value: 0.97933763
      objectReference: {fileID: 0}
    - target: {fileID: 8805360433426507016, guid: 749fa629e59c82943b9e5ff3aefd3a2c,
        type: 3}
      propertyPath: m_LocalRotation.z
      value: -0.09073431
      objectReference: {fileID: 0}
    - target: {fileID: 8805360433426507016, guid: 749fa629e59c82943b9e5ff3aefd3a2c,
        type: 3}
      propertyPath: m_LocalRotation.w
      value: -0.18032666
      objectReference: {fileID: 0}
    - target: {fileID: 8805360433426507016, guid: 749fa629e59c82943b9e5ff3aefd3a2c,
        type: 3}
      propertyPath: m_RootOrder
      value: 0
      objectReference: {fileID: 0}
    - target: {fileID: 8805360433426507016, guid: 749fa629e59c82943b9e5ff3aefd3a2c,
        type: 3}
      propertyPath: m_LocalEulerAnglesHint.x
      value: 10.492
      objectReference: {fileID: 0}
    - target: {fileID: 8805360433426507016, guid: 749fa629e59c82943b9e5ff3aefd3a2c,
        type: 3}
      propertyPath: m_LocalEulerAnglesHint.y
      value: 200.914
      objectReference: {fileID: 0}
    - target: {fileID: 8805360433426507016, guid: 749fa629e59c82943b9e5ff3aefd3a2c,
        type: 3}
      propertyPath: m_LocalEulerAnglesHint.z
      value: 0.521
      objectReference: {fileID: 0}
    m_RemovedComponents: []
  m_SourcePrefab: {fileID: 100100000, guid: 749fa629e59c82943b9e5ff3aefd3a2c, type: 3}
--- !u!4 &4098540369683415085 stripped
Transform:
  m_CorrespondingSourceObject: {fileID: 8805360433426507016, guid: 749fa629e59c82943b9e5ff3aefd3a2c,
    type: 3}
  m_PrefabInstance: {fileID: 4814942188930508069}
  m_PrefabAsset: {fileID: 0}
--- !u!1001 &8716274953772691272
PrefabInstance:
  m_ObjectHideFlags: 0
  serializedVersion: 2
  m_Modification:
    m_TransformParent: {fileID: 4098540369683415085}
    m_Modifications:
    - target: {fileID: 1561859090364557415, guid: 749fa629e59c82943b9e5ff3aefd3a2c,
        type: 3}
      propertyPath: m_Name
      value: child1 (1)
      objectReference: {fileID: 0}
    - target: {fileID: 8805360433426507016, guid: 749fa629e59c82943b9e5ff3aefd3a2c,
        type: 3}
      propertyPath: m_LocalPosition.x
      value: 1.0993811
      objectReference: {fileID: 0}
    - target: {fileID: 8805360433426507016, guid: 749fa629e59c82943b9e5ff3aefd3a2c,
        type: 3}
      propertyPath: m_LocalPosition.y
      value: -0.0017464684
      objectReference: {fileID: 0}
    - target: {fileID: 8805360433426507016, guid: 749fa629e59c82943b9e5ff3aefd3a2c,
        type: 3}
      propertyPath: m_LocalPosition.z
      value: 0
      objectReference: {fileID: 0}
    - target: {fileID: 8805360433426507016, guid: 749fa629e59c82943b9e5ff3aefd3a2c,
        type: 3}
      propertyPath: m_LocalRotation.x
      value: -0
      objectReference: {fileID: 0}
    - target: {fileID: 8805360433426507016, guid: 749fa629e59c82943b9e5ff3aefd3a2c,
        type: 3}
      propertyPath: m_LocalRotation.y
      value: -0
      objectReference: {fileID: 0}
    - target: {fileID: 8805360433426507016, guid: 749fa629e59c82943b9e5ff3aefd3a2c,
        type: 3}
      propertyPath: m_LocalRotation.z
      value: -0
      objectReference: {fileID: 0}
    - target: {fileID: 8805360433426507016, guid: 749fa629e59c82943b9e5ff3aefd3a2c,
        type: 3}
      propertyPath: m_LocalRotation.w
      value: 1
      objectReference: {fileID: 0}
    - target: {fileID: 8805360433426507016, guid: 749fa629e59c82943b9e5ff3aefd3a2c,
        type: 3}
      propertyPath: m_RootOrder
      value: 0
      objectReference: {fileID: 0}
    - target: {fileID: 8805360433426507016, guid: 749fa629e59c82943b9e5ff3aefd3a2c,
        type: 3}
      propertyPath: m_LocalEulerAnglesHint.x
      value: 10.492
      objectReference: {fileID: 0}
    - target: {fileID: 8805360433426507016, guid: 749fa629e59c82943b9e5ff3aefd3a2c,
        type: 3}
      propertyPath: m_LocalEulerAnglesHint.y
      value: 200.914
      objectReference: {fileID: 0}
    - target: {fileID: 8805360433426507016, guid: 749fa629e59c82943b9e5ff3aefd3a2c,
        type: 3}
      propertyPath: m_LocalEulerAnglesHint.z
      value: 0.521
      objectReference: {fileID: 0}
    - target: {fileID: 8805360433426507016, guid: 749fa629e59c82943b9e5ff3aefd3a2c,
        type: 3}
      propertyPath: m_LocalScale.x
      value: 1
      objectReference: {fileID: 0}
    - target: {fileID: 8805360433426507016, guid: 749fa629e59c82943b9e5ff3aefd3a2c,
        type: 3}
      propertyPath: m_LocalScale.y
      value: 1
      objectReference: {fileID: 0}
    m_RemovedComponents: []
  m_SourcePrefab: {fileID: 100100000, guid: 749fa629e59c82943b9e5ff3aefd3a2c, type: 3}
