[
  {
    "Szene: ": "2",
    "Jobless": "0",
    "Degree": "secondary school certificate",
    "Profession": "Sales and Distribution",
    "Career": "executive director"
  },
  {
    "Szene: ": "0",
    "Wallpicture": "3",
    "Food": "Choco",
    "Infodevice": "Newspaper",
    "Kommdevice": "Laptop",
    "Car": "Sportscar",
    "Propulsion": "Hybrid",
    "Bike": "",
    "Location": "a",
    "PartnerGender": "",
    "Children": ""
  }
]